// Jest Snapshot v1, https://goo.gl/fbAQLP

exports[`Product Overlay Block rendering should render product overlay block with the parameters supplied 1`] = `
<ProductOverlay
  document={
    Object {
      "fields": Object {
        "anchorId": "overlay-10101010101",
        "contentType": "productOverlay",
        "name": "name",
      },
    }
  }
  isMobile={false}
  states={
    Object {
      "isOverlayOpen": false,
    }
  }
>
  <div
    className="ob-product-overlay overlay-10101010101"
  >
    <div
      className="ob-product-overlay__wrapper"
    >
      <button
        className="ob-product-overlay__close-btn"
        onClick={[Function]}
      >
        <Icon
          name="close"
          rotate={0}
          size={2}
          styles={Object {}}
          viewBox={32}
        >
          <svg
            className="ob-icon ob-icon--close "
            dangerouslySetInnerHTML={
              Object {
                "__html": "<polygon points=\\"30.3,31.7 16,17.4 1.7,31.7 0.3,30.3 14.6,16 0.3,1.7 1.7,0.3 16,14.6 30.3,0.3 31.7,1.7 17.4,16 31.7,30.3\\"/>",
              }
            }
            style={
              Object {
                "fill": undefined,
                "fontSize": "2rem",
                "height": "2rem",
                "transform": 0,
                "width": "2rem",
              }
            }
            viewBox="0 0 32 32"
          />
        </Icon>
      </button>
      <div
        id="ob-product-overlay__content"
      />
    </div>
  </div>
</ProductOverlay>
`;
