// Jest Snapshot v1, https://goo.gl/fbAQLP

exports[`Content block rendering should render content block with the parameters supplied 1`] = `
<Content
  document={
    Object {
      "fields": Object {
        "anchorId": "anchor",
        "callToActionLabel": "ctaLabel",
        "callToActionLink": "ctaLink",
        "classNames": "class",
        "contentType": "contentBlock",
        "description": "description",
        "devicesConfigurations": Array [
          Object {
            "fields": Object {
              "backgroundAsset": Object {
                "fields": Object {
                  "assetId": "assetId",
                  "contentType": "cloudinaryImage",
                  "imageRendition": Object {
                    "fields": Object {
                      "aspectRatio": 1,
                      "contentType": "imageRendition",
                      "name": "name",
                      "transformations": "test",
                    },
                  },
                  "name": "name",
                },
              },
              "contentType": "contentBlockConfiguration",
              "deviceType": "desktop",
              "name": "Content Block Config 1 - desktop",
              "textAlign": "center",
              "textColor": "White",
              "textContainerHorizontalAlignment": "center",
              "textContainerOffset": "8%",
              "textContainerVerticalAlignment": "top",
              "textContainerWidth": "50%",
              "textFadeIn": true,
              "textShowAnimation": "bottom-transition",
            },
          },
        ],
        "name": "name",
        "shortName": "shortName",
        "title": "title",
        "titleFontSize": "large",
        "titleLevel": "1",
      },
    }
  }
  isMobile={false}
  isTablet={false}
  isTiny={false}
>
  <section
    className="ob-contentBlock content class bottom-transition "
    id="anchor"
    style={
      Object {
        "backgroundColor": undefined,
      }
    }
  >
    <Image
      backgroundOffsetTop=""
      backgroundPosition=""
      image={
        Object {
          "fields": Object {
            "assetId": "assetId",
            "contentType": "cloudinaryImage",
            "imageRendition": Object {
              "fields": Object {
                "aspectRatio": 1,
                "contentType": "imageRendition",
                "name": "name",
                "transformations": "test",
              },
            },
            "name": "name",
          },
        }
      }
    >
      <BackgroundImage
        backgroundOffsetTop=""
        backgroundPosition=""
        customStyles={null}
        format="auto"
        fragments={
          Array [
            Object {
              "minWidth": 0,
              "size": 1,
            },
          ]
        }
        image={
          Object {
            "fields": Object {
              "assetId": "assetId",
              "contentType": "cloudinaryImage",
              "imageRendition": Object {
                "fields": Object {
                  "aspectRatio": 1,
                  "contentType": "imageRendition",
                  "name": "name",
                  "transformations": "test",
                },
              },
              "name": "name",
            },
          }
        }
        imageId="assetId"
        transformations="test"
        widthToHeightRatio={1}
      >
        <LazyLoad
          offset={500}
          once={false}
          overflow={false}
          placeholder={
            <div
              className="ob-background-wrapper "
              style={
                Object {
                  "backgroundPosition": "",
                  "marginTop": "",
                  "paddingTop": "100%",
                }
              }
            />
          }
          resize={false}
          scroll={true}
          unmountIfInvisible={false}
        >
          <div
            className="ob-background-wrapper "
            style={
              Object {
                "backgroundPosition": "",
                "marginTop": "",
                "paddingTop": "100%",
              }
            }
          />
        </LazyLoad>
      </BackgroundImage>
    </Image>
  </section>
</Content>
`;
