// Jest Snapshot v1, https://goo.gl/fbAQLP

exports[`Product Grid Block rendering should render product grid block with the parameters supplied 1`] = `
<ProductGridBlock
  document={
    Object {
      "anchorId": "anchor id",
      "background": "background",
      "body": "body",
      "classNames": "class name",
      "contentType": "productGridBlock",
      "maxNumberInlineItems": "3",
      "name": "name",
      "productList": Array [],
      "seeMoreLabel": Object {},
      "title": "title",
      "titleLevel": "1",
    }
  }
  isMobile={false}
/>
`;
